<?xml version="1.0" encoding="utf-8"?>
<!-- Generator: Adobe Illustrator 19.1.0, SVG Export Plug-In . SVG Version: 6.00 Build 0)  -->
<svg version="1.1" id="Layer_1" xmlns="http://www.w3.org/2000/svg" xmlns:xlink="http://www.w3.org/1999/xlink" x="0px" y="0px"
	 viewBox="0 0 276 248" enable-background="new 0 0 276 248" xml:space="preserve">
<path fill="none" stroke="#FFFFFF" stroke-width="2.724" stroke-linecap="round" d="M26.0156,181.0137
	c20.841,38.907,62.273,65.76,109.497,65.76c68.314,0,123.693-55.379,123.693-123.693c0-1.938-0.044-3.865-0.194-6.31
	c-0.062-0.53-155.615,43.509-155.615,43.509"/>
<path fill="#FFFFFF" d="M132.3103,98.1903c0.239-7.465,9.401-0.123,8.425,7.017c-1.586,11.625-4.454,31.165-3.907,35.079
	c0.066,0.476,0.449,0.592,0.623,0.551c0.224-0.052,0.573-0.147,0.873-0.509c2.244-2.698,6.208-13.139,8.24-20.885
	c1.076-0.153,2.258,0.903,1.831,4.056c-0.933,6.89-6.694,19.956-11.352,21.18c-2.154,0.565-4.459-0.462-6.311-1.21
	c-2.079-0.758-2.849-3.228-2.998-5.35c-0.249-4.332,3.422-28.5,4.018-34.339C131.9483,101.5613,132.0723,100.4443,132.3103,98.1903"
	/>
<path fill="#FFFFFF" d="M160.3641,113.7805c-0.245-0.053-0.846,0.693-0.846,0.693c-1.521,1.641-3.046,4.376-3.986,8.689
	c-0.743,3.194-1.163,10.003,0.726,11.412c5.027,3.809,13.924-12.575,15.755-21.449c1.497,0.549,2.459,1.846,1.809,4.044
	c-3.205,11.946-9.661,20.033-15.063,21.254c-3.045,0.687-6.572-1.023-8.753-2.463c-2.639-1.742-6.008-7.562-3.337-16.896
	c2.22-7.49,7.374-13.045,12.124-11.546c2.128,0.669,6.561,2.631,7.538,5.043c0.79,2.538-2.365,6.71-2.896,11.188
	c-3.165,0.538-3.311-5.98-2.947-9.635C160.4881,114.1145,160.5261,113.8155,160.3641,113.7805"/>
<path fill="#FFFFFF" d="M201.4984,109.5296c-1.283,2.6-4.855,5.023-8.939,4.829c0.063,1.55-0.063,3.227-0.285,4.558
	c-1.002,6.252-4.272,12.396-9.098,12.486c-2.023-0.028-5.777-1.435-7.244-2.141c-10.106-4.619-2.042-31.738,7.906-29.538
	c6.507,1.378,8.157,4.943,5.923,6.02c-2.36-2.023-6.167,2.482-7.854,9.747c-1.367,6.28-0.376,12.718,1.647,12.745
	c2.496,0.119,5.404-4.132,5.95-9.883c0.155-1.834,0.092-3.384-0.14-4.737c-2.984-1.324-3.901-4.051-2.553-5.624
	c1.299-1.485,4.138-0.941,5.027,1.421c0.225,0.533,0.4,1.156,0.437,1.817c3.671-0.212,7.107-3.119,7.986-5.83
	C201.3574,105.3156,202.8704,106.9796,201.4984,109.5296"/>
<path fill="#FFFFFF" d="M213.3961,115.2111c-0.022-4.322,0.553-11.425,1.721-17.35c0.017-0.209-0.055-0.234-0.112-0.243
	c-0.068-0.011-0.156,0.016-0.314,0.266c-1.529,2.42-6.819,16.26-7.815,26.774c-1.807,2.598-8.078-0.861-7.995-6.929
	c0.116-4.361,1.01-10.732,1.555-16.482c0.266-2.239,0.546-3.363-0.731-4.72c-0.281-3.652,10.671-1.063,9.676,6.008l-0.063,0.838
	c1.061-3.656,3.608-8.925,5.859-11.797c2.47-3.158,9.744,1.213,9.386,4.448c-0.161,1.015-0.254,2.011-0.416,3.027
	c1.129-3.676,3.627-8.856,5.828-11.64c2.47-3.158,9.744,1.213,9.386,4.448c-1.328,10.118-2.294,17.52-1.935,20.147
	c0.102,0.753,0.367,0.811,0.716,0.843c0.289,0.027,0.607-0.279,0.961-0.816c2.016-3.063,4.93-13.001,6.891-20.474
	c1.076-0.153,2.552,0.85,2.016,3.985c-0.865,6.736-5.336,19.487-10.039,20.81c-2.143,0.604-4.593-0.296-6.379-1.189
	c-2.033-1.017-2.849-3.228-2.929-5.37c-0.249-4.333-0.182-8.432,0.926-14.369c0.14-0.747-0.34-1.255-0.858-0.26
	c-1.882,3.61-6.168,15.39-7.096,25.189C219.7101,123.0611,213.5011,121.1511,213.3961,115.2111"/>
<path fill="#FFFFFF" d="M254.91,95.3939c-0.091,0.473-0.162,1.016-0.214,1.627c7.451-2.694,7.233-12.483,6.149-12.626
	C259.937,84.3519,256.143,88.1069,254.91,95.3939 M272.748,88.5079c-2.574,12.067-8.567,20.471-13.892,21.969
	c-2.351,0.662-6.398-0.189-8.92-1.907c-3.642-2.645-6.358-7.301-4.159-16.725c1.816-7.601,7.586-13.702,12.417-12.45
	c5.461,1.374,6.049,3.82,6.35,7.541c0.377,4.521-3.607,11.314-9.951,13.696c0.029,2.753,0.403,5.409,1.594,6.193
	c5.176,3.544,13.186-13.337,14.544-22.302C272.278,84.9839,273.24,86.2799,272.748,88.5079"/>
<path fill="none" stroke="#FFFFFF" stroke-width="2.724" stroke-linecap="round" d="M249.2813,75.431
	C230.7703,30.447,187.5623,1,135.9023,1c-51.969,0-97.898,33.494-116.209,78.906"/>
<path fill="#FFFFFF" d="M94.1487,54.8985c10.384,46.145-4.17,92.794-16.749,95.588c-4.179,0.928-9.536-1.739-9.272-13.871
	c0.22-10.418,1.314-25.144,3.284-44.177c0.508-4.848,0.288-9.636-1.034-14.015c-3.121-10.34-11.993-10.807-14.721-5.927
	c-3.194,41.677-15.719,90.214-27.948,92.38c-2.306,0.408-8.073-0.048-7.809-12.18c0.22-10.418,1.117-25.102,3.086-44.135
	c0.658-6.52-0.388-15.838-2.957-20.055c-3.853-6.325-8.209-7.631-12.17-7.581c-0.984,0.012-3.176,0.342-4.763,1.868
	c-1.527,1.467-1.485,5.376,0.186,6.87c5.371,4.104,4.507,6.179,3.913,13.172c-1.276,18.337-1.843,37.037-0.948,50.788
	c0.991,16.344,11.939,23.829,23.085,20.734c10.93-3.035,18.988-15.932,23.506-33.81c0.046,0.139-0.046,0.324,0,0.463
	c1.13,16.297,12.907,23.44,24.015,19.723c19.718-6.598,35.69-55.404,34.863-90.177c-0.116-5.167-0.03-10.461-2.298-13.356
	C104.0857,50.3935,93.9677,53.3025,94.1487,54.8985"/>
<path fill="#FFFFFF" d="M113.4377,135.0911c-0.091,0.473-0.162,1.016-0.214,1.627c7.451-2.694,7.233-12.483,6.149-12.626
	C118.4647,124.0491,114.6707,127.8041,113.4377,135.0911 M131.2757,128.2051c-2.574,12.067-8.567,20.471-13.892,21.969
	c-2.351,0.662-6.398-0.189-8.92-1.907c-3.642-2.645-6.358-7.301-4.159-16.725c1.816-7.601,7.586-13.702,12.417-12.45
	c5.461,1.374,6.049,3.82,6.35,7.541c0.377,4.521-3.607,11.314-9.951,13.696c0.029,2.753,0.403,5.409,1.594,6.193
	c5.176,3.544,13.186-13.337,14.544-22.302C130.8057,124.6811,131.7677,125.9771,131.2757,128.2051"/>
<path fill="#FFFFFF" d="M191.787,165.5628c0.053,0.304,0.275,0.53,0.571,0.447l2.873-0.796c0.267-0.074,0.489-0.423,0.437-0.728
	l-1.318-9.811l4.704-12.024c0.159-0.459-0.036-0.819-0.48-0.696l-3.259,0.903c-0.237,0.066-0.344,0.255-0.4,0.399l-3.045,8.341
	l-5-5.951c-0.2-0.263-0.351-0.349-0.677-0.259l-2.784,0.773c-0.415,0.115-0.591,0.514-0.307,0.85l7.406,8.761L191.787,165.5628z
	 M173.174,159.1758l-0.805-6.126l4.058-1.125c1.096-0.304,2.237,0.592,2.607,1.925c0.517,1.866-0.291,3.781-2.157,4.299
	L173.174,159.1758z M170.758,171.3948c0.023,0.312,0.274,0.53,0.571,0.447l2.873-0.796c0.266-0.074,0.459-0.415,0.406-0.719
	l-1.028-7.85l2.813-0.78l4.282,7.043c0.188,0.331,0.487,0.375,0.783,0.293l2.814-0.78c0.444-0.123,0.515-0.558,0.29-0.91
	l-4.532-6.91c2.567-1.669,3.814-4.535,2.812-8.149c-0.846-3.052-3.639-4.957-6.542-4.152l-7.82,2.169
	c-0.266,0.073-0.459,0.414-0.406,0.718L170.758,171.3948z M155.208,175.7068c0.023,0.313,0.274,0.53,0.571,0.448l10.959-3.039
	c0.296-0.083,0.488-0.423,0.436-0.728l-0.348-2.519c-0.052-0.305-0.274-0.53-0.571-0.448l-7.612,2.111l-0.697-5.389l6.279-1.742
	c0.267-0.074,0.468-0.385,0.437-0.727l-0.327-2.557c-0.052-0.305-0.334-0.514-0.6-0.44l-6.28,1.741l-0.666-5.047l7.583-2.103
	c0.296-0.082,0.489-0.422,0.436-0.727l-0.318-2.528c-0.053-0.304-0.304-0.521-0.601-0.439l-10.959,3.039
	c-0.266,0.074-0.459,0.414-0.406,0.719L155.208,175.7068z M143.212,179.0338c0.053,0.304,0.334,0.513,0.601,0.439l2.873-0.797
	c0.266-0.073,0.489-0.422,0.436-0.727l-2.269-17.268l3.91-1.084c0.296-0.082,0.489-0.423,0.436-0.727l-0.318-2.528
	c-0.053-0.304-0.304-0.522-0.6-0.44l-11.759,3.261c-0.267,0.074-0.459,0.415-0.407,0.719l0.318,2.528
	c0.053,0.305,0.305,0.522,0.601,0.44l3.909-1.085L143.212,179.0338z M127.544,176.3598l1.437-7.353l0.059-0.016l3.183,6.072
	L127.544,176.3598z M122.369,185.4198l2.725-0.756c0.474-0.131,0.717-0.518,0.783-0.855l0.806-3.765l7.375-2.045l1.653,3.083
	c0.212,0.42,0.49,0.502,0.934,0.379l2.577-0.715c0.415-0.115,0.575-0.574,0.349-0.926l-10.979-18.426
	c-0.108-0.161-0.297-0.268-0.505-0.21l-0.266,0.073c-0.237,0.066-0.352,0.226-0.413,0.466l-5.608,23.026
	C121.699,185.1908,121.954,185.5348,122.369,185.4198 M106.485,189.2188c0.023,0.313,0.275,0.53,0.571,0.448l10.959-3.039
	c0.296-0.082,0.489-0.423,0.436-0.728l-0.348-2.519c-0.052-0.304-0.274-0.53-0.57-0.448l-7.613,2.111l-0.697-5.389l6.279-1.742
	c0.267-0.074,0.468-0.385,0.437-0.727l-0.327-2.557c-0.052-0.305-0.334-0.514-0.6-0.44l-6.279,1.741l-0.666-5.047l7.582-2.103
	c0.296-0.082,0.489-0.422,0.436-0.727l-0.318-2.528c-0.052-0.304-0.304-0.521-0.6-0.439l-10.959,3.039
	c-0.267,0.074-0.46,0.414-0.407,0.719L106.485,189.2188z"/>
</svg>
